<?xml version="1.0" encoding="utf-8"?>
<!-- Generator: Adobe Illustrator 16.0.4, SVG Export Plug-In . SVG Version: 6.00 Build 0)  -->
<!DOCTYPE svg PUBLIC "-//W3C//DTD SVG 1.1//EN" "http://www.w3.org/Graphics/SVG/1.1/DTD/svg11.dtd">
<svg version="1.1" id="Layer_3" xmlns="http://www.w3.org/2000/svg" xmlns:xlink="http://www.w3.org/1999/xlink" x="0px" y="0px"
	 width="731.979px" height="208.252px" viewBox="0 0 731.979 208.252" enable-background="new 0 0 731.979 208.252"
	 xml:space="preserve">
<g>
	<polygon opacity="0.5" fill="#FF7F0E" enable-background="new    " points="73.198,0 73.198,0 36.599,104.127 73.198,208.252 
		146.396,208.252 	"/>
	<polygon opacity="0.5" fill="#FF7F0E" enable-background="new    " points="182.995,0 182.995,0 146.396,104.127 182.995,208.252 
		256.193,208.252 292.792,104.127 256.193,0 	"/>
	<polygon opacity="0.5" fill="#FF7F0E" enable-background="new    " points="329.391,0 329.391,0 292.792,104.127 329.391,208.252 
		402.589,208.252 439.189,104.127 402.589,0 	"/>
	<polygon opacity="0.5" fill="#FF7F0E" enable-background="new    " points="548.984,0 475.785,0 512.385,104.127 585.582,104.127 	
		"/>
	<polygon opacity="0.5" fill="#FF7F0E" enable-background="new    " points="658.781,0 603.884,52.062 658.781,208.252 
		713.679,156.188 	"/>
	<polygon fill="#FF7F0E" points="146.396,0 73.198,0 0,208.252 73.198,208.252 	"/>
	<polygon fill="#FF7F0E" points="256.193,0 182.995,0 146.396,104.127 182.995,208.252 182.995,208.252 	"/>
	<polygon fill="#FF7F0E" points="402.589,0 329.391,0 292.792,104.127 329.391,208.252 329.391,208.252 	"/>
	<polygon fill="#FF7F0E" points="548.984,0 475.785,0 439.189,104.127 475.785,208.252 475.785,208.252 	"/>
	<polyline fill="#FF7F0E" points="731.979,0 658.781,0 585.582,208.252 658.781,208.252 731.979,0 	"/>
</g>
</svg>
